…
trash_wheel_data
```

    ## # A tibble: 344 x 14
    ##    dumpster month  year date                weight_tons volume_cubic_ya…
    ##       <dbl> <chr> <dbl> <dttm>                    <dbl>            <dbl>
    ##  1        1 May    2014 2014-05-16 00:00:00        4.31               18
    ##  2        2 May    2014 2014-05-16 00:00:00        2.74               13
    ##  3        3 May    2014 2014-05-16 00:00:00        3.45               15
    ##  4        4 May    2014 2014-05-17 00:00:00        3.1                15
    ##  5        5 May    2014 2014-05-17 00:00:00        4.06               18
    ##  6        6 May    2014 2014-05-20 00:00:00        2.71               13
    ##  7        7 May    2014 2014-05-21 00:00:00        1.91                8
    ##  8        8 May    2014 2014-05-28 00:00:00        3.7                16
    ##  9        9 June   2014 2014-06-05 00:00:00        2.52               14
    ## 10       10 June   2014 2014-06-11 00:00:00        3.76               18
    ## # … with 334 more rows, and 8 more variables: plastic_bottles <dbl>,
    ## #   polystyrene <dbl>, cigarette_butts <dbl>, glass_bottles <dbl>,
    ## #   grocery_bags <dbl>, chip_bags <dbl>, sports_balls_int <int>,
    ## #   homes_powered_rd <dbl>
…
``` r
# create new dataset by combining precip_2017 and precip_2018

precip_combined = 
  bind_rows(precip_2017, precip_2018) %>%
  mutate(.data = ., 
         total_in = round(as.numeric(total_inches), digits = 2),
         month = month.name[as.numeric(month)]) %>% 
  select(.data = ., year, month, total_in, -total_inches)

precip_combined
```

    ## # A tibble: 24 x 3
    ##     year month     total_in
    ##    <dbl> <chr>        <dbl>
    ##  1  2017 January       2.34
    ##  2  2017 February      1.46
    ##  3  2017 March         3.57
    ##  4  2017 April         3.99
    ##  5  2017 May           5.64
    ##  6  2017 June          1.4 
    ##  7  2017 July          7.09
    ##  8  2017 August        4.44
    ##  9  2017 September     1.95
    ## 10  2017 October       0   
    ## # … with 14 more rows
…
``` r
# convert the months from rows to columns in the unemployment data frame

unemploy_data_col = 
  pivot_longer(
    unemploy_df,
    jan:dec,
    names_to = "month",
    values_to = "percent_unemploy")

unemploy_data_col
```

    ## # A tibble: 816 x 3
    ##     year month percent_unemploy
    ##    <int> <chr>            <dbl>
    ##  1  1948 jan                3.4
    ##  2  1948 feb                3.8
    ##  3  1948 mar                4  
    ##  4  1948 apr                3.9
    ##  5  1948 may                3.5
    ##  6  1948 jun                3.6
    ##  7  1948 jul                3.6
    ##  8  1948 aug                3.9
    ##  9  1948 sep                3.8
    ## 10  1948 oct                3.7
    ## # … with 806 more rows
…
unemploy_tidy_data
```

    ## # A tibble: 816 x 3
    ##     year month     percent_unemploy
    ##    <int> <chr>                <dbl>
    ##  1  1948 January                3.4
    ##  2  1948 February               3.8
    ##  3  1948 March                  4  
    ##  4  1948 April                  3.9
    ##  5  1948 May                    3.5
    ##  6  1948 June                   3.6
    ##  7  1948 July                   3.6
    ##  8  1948 August                 3.9
    ##  9  1948 September              3.8
    ## 10  1948 October                3.7
    ## # … with 806 more rows
…
